<?xml version="1.0" standalone="no"?>
<!DOCTYPE svg PUBLIC "-//W3C//DTD SVG 20010904//EN"
 "http://www.w3.org/TR/2001/REC-SVG-20010904/DTD/svg10.dtd">
<svg version="1.0" xmlns="http://www.w3.org/2000/svg"
 width="150.000000pt" height="150.000000pt" viewBox="0 0 150.000000 150.000000"
 preserveAspectRatio="xMidYMid meet">

<g transform="translate(0.000000,150.000000) scale(0.1000,-0.1000)"
fill="#000000" stroke="none">
<path d="M1200 1462 c-256 -48 -260 -64 -25 -107 83 -15 151 -28 153 -30 6 -5
-29 -13 -173 -40 -207 -37 -205 -50 13 -90 83 -16 152 -31 152 -35 0 -4 -67
-19 -150 -34 -224 -42 -223 -59 5 -100 82 -15 151 -29 153 -31 6 -5 -17 -10
-178 -40 -205 -38 -203 -50 18 -91 83 -15 152 -30 152 -34 0 -4 -67 -19 -150
-34 -224 -42 -223 -59 5 -100 82 -15 151 -29 153 -31 6 -5 -17 -10 -178 -40
-202 -38 -202 -52 1 -90 165 -31 182 -35 178 -40 -3 -2 -72 -16 -154 -30 -157
-28 -183 -38 -164 -61 6 -8 18 -14 26 -14 9 0 79 -12 156 -27 99 -18 135 -29
122 -34 -11 -5 -83 -20 -160 -34 -211 -38 -209 -52 14 -94 84 -16 154 -31 157
-34 3 -2 -62 -17 -143 -32 -166 -31 -193 -40 -172 -59 19 -17 351 -77 424 -76
97 1 49 22 -127 54 -84 16 -148 31 -142 33 6 2 78 17 159 32 219 43 220 57 8
96 -82 16 -152 31 -156 35 -4 4 61 19 145 34 226 40 225 55 -3 98 -84 15 -154
30 -156 32 -2 2 69 17 158 34 89 17 164 33 167 36 2 3 2 12 -1 19 -4 10 -54
24 -154 42 -81 15 -151 31 -156 34 -4 4 61 20 145 35 225 42 225 54 -2 97 -84
15 -155 30 -157 32 -2 3 63 16 144 31 158 29 178 35 178 57 0 10 -43 23 -152
44 -83 17 -154 33 -157 36 -3 3 64 18 150 34 105 19 158 33 161 43 9 21 -5 26
-169 56 -88 17 -145 32 -137 36 8 4 73 17 144 29 162 28 167 29 163 49 -3 18
-17 22 -185 52 -68 13 -123 26 -123 30 0 4 55 17 123 30 168 30 182 34 185 52
4 20 3 20 -177 54 -82 15 -138 30 -130 34 8 4 70 18 139 30 138 25 170 34 170
50 0 18 -101 9 -290 -28z"/>
</g>
</svg>
